{
  "_meta": {
    "sources": [
      "loopback/common/models",
      "loopback/server/models",
      "../common/models",
      "./models"
    ],
    "mixins": [
      "loopback/common/mixins",
      "loopback/server/mixins",
      "../common/mixins",
      "./mixins"
    ]
  },
  "Projects": {
    "dataSource": "enlu-ds",
    "public": false
  },
  "Settings": {
    "dataSource": "enlu-ds",
    "public": false
  }
}
